module gitlab.com/Drauthius/gpu-monitoring-tools

go 1.14

require (
	github.com/gorilla/mux v1.7.4
	github.com/sirupsen/logrus v1.4.2
	github.com/stretchr/testify v1.5.1
	github.com/urfave/cli/v2 v2.2.0
	golang.org/x/sys v0.0.0-20200413165638-669c56c373c4 // indirect
	google.golang.org/grpc v1.28.1
	k8s.io/kubernetes v1.18.2
)

replace (
	k8s.io/api => k8s.io/api v0.18.2
	k8s.io/apiextensions-apiserver => k8s.io/apiextensions-apiserver v0.18.2
	k8s.io/apimachinery => k8s.io/apimachinery v0.18.2
	k8s.io/apiserver => k8s.io/apiserver v0.18.2
	k8s.io/cli-runtime => k8s.io/cli-runtime v0.18.2
	k8s.io/client-go => k8s.io/client-go v0.18.2
	k8s.io/cloud-provider => k8s.io/cloud-provider v0.18.2
	k8s.io/cluster-bootstrap => k8s.io/cluster-bootstrap v0.18.2
	k8s.io/code-generator => k8s.io/code-generator v0.18.2
	k8s.io/component-base => k8s.io/component-base v0.18.2
	k8s.io/cri-api => k8s.io/cri-api v0.18.2
	k8s.io/csi-translation-lib => k8s.io/csi-translation-lib v0.18.2
	k8s.io/kube-aggregator => k8s.io/kube-aggregator v0.18.2
	k8s.io/kube-controller-manager => k8s.io/kube-controller-manager v0.18.2
	k8s.io/kube-proxy => k8s.io/kube-proxy v0.18.2
	k8s.io/kube-scheduler => k8s.io/kube-scheduler v0.18.2
	k8s.io/kubectl => k8s.io/kubectl v0.18.2
	k8s.io/kubelet => k8s.io/kubelet v0.18.2
	k8s.io/legacy-cloud-providers => k8s.io/legacy-cloud-providers v0.18.2
	k8s.io/metrics => k8s.io/metrics v0.18.2
	k8s.io/sample-apiserver => k8s.io/sample-apiserver v0.18.2
)
